^C:\PROJECTS\PROJECT\HELLOSKILLBOX!\HELLOSKILLBOX!.CPP
C:\PROJECTS\PROJECT\HELLOSKILLBOX!\DEBUG\VC142.PDB
C:\PROJECTS\PROJECT\HELLOSKILLBOX!\DEBUG\VC142.IDB
C:\PROJECTS\PROJECT\HELLOSKILLBOX!\DEBUG\HELLOSKILLBOX!.OBJ
